Categories:Theming
License:GPL-3.0
Web Site:http://kisslauncher.com
Source Code:https://github.com/Neamar/KISS
Issue Tracker:https://github.com/Neamar/KISS/issues
Changelog:https://github.com/Neamar/KISS/releases

Auto Name:KISS launcher
Summary:Custom launcher
Description:
KISS is a fast launcher following the KISS principle.

Search through you app, contacts and settings lightning fast. No more time spent
trying to find the app you need to launch: enter a few characters from the name
and press enter. Need to phone someone? Don't meddle with the call log, just
give three letters of their name and push the "phone" button.

KISS becomes smarter and smarter as you use it, pushing forward results you're
more likely to select.
.

Repo Type:git
Repo:https://github.com/Neamar/KISS

Build:2.6.0,44
    commit=v2.6.0
    subdir=app
    gradle=yes

Build:2.6.4,48
    commit=v2.6.4
    subdir=app
    gradle=yes

Build:2.6.5,49
    commit=v2.6.5
    subdir=app
    gradle=yes

Build:2.7.2,52
    commit=v2.7.2
    subdir=app
    gradle=yes

Build:2.7.3,53
    commit=v2.7.3
    subdir=app
    gradle=yes

Build:2.7.4,54
    commit=v2.7.4
    subdir=app
    gradle=yes

Build:2.8.0,57
    commit=v2.8.0
    subdir=app
    gradle=yes

Build:2.9.3,61
    commit=v2.9.3
    subdir=app
    gradle=yes

Build:2.9.4,62
    commit=v2.9.4
    subdir=app
    gradle=yes

Build:2.10.1,64
    commit=v2.10.1
    subdir=app
    gradle=yes

Build:2.12.0,66
    commit=v2.12.0
    subdir=app
    gradle=yes

Build:2.13.1,68
    commit=v2.13.1
    subdir=app
    gradle=yes

Build:2.14.0,69
    commit=v2.14.0
    subdir=app
    gradle=yes

Build:2.15.1,71
    commit=v2.15.1
    subdir=app
    gradle=yes

Build:2.16.0,72
    commit=v2.16.0
    subdir=app
    gradle=yes

Build:2.17.0,73
    commit=v2.17.0
    subdir=app
    gradle=yes

Build:2.19.0,75
    commit=v2.19.0
    subdir=app
    gradle=yes

Build:2.19.1,76
    commit=v2.19.1
    subdir=app
    gradle=yes

Build:2.19.2,77
    commit=v2.19.2
    subdir=app
    gradle=yes

Build:2.20.0,78
    commit=v2.20.0
    subdir=app
    gradle=yes

Build:2.21.0,79
    commit=v2.21.0
    subdir=app
    gradle=yes

Build:2.22.0,80
    commit=v2.22.0
    subdir=app
    gradle=yes

Build:2.22.1,81
    commit=v2.22.1
    subdir=app
    gradle=yes

Build:2.23.0,82
    commit=v2.23.0
    subdir=app
    gradle=yes

Build:2.24.0,83
    commit=v2.24.0
    subdir=app
    gradle=yes

Build:2.24.1,84
    commit=v2.24.1
    subdir=app
    gradle=yes

Build:2.25.0,85
    commit=v2.25.0
    subdir=app
    gradle=yes

Build:2.27.0,87
    commit=v2.27.0
    subdir=app
    gradle=yes

Build:2.28.0,88
    commit=v2.28.0
    subdir=app
    gradle=yes

Build:2.28.1,89
    commit=v2.28.1
    subdir=app
    gradle=yes

Build:2.29.0,90
    commit=v2.29.0
    subdir=app
    gradle=yes

Build:2.29.2,92
    commit=v2.29.2
    subdir=app
    gradle=yes

Build:2.29.3,93
    commit=v2.29.3
    subdir=app
    gradle=yes

Build:2.30.0,94
    commit=v2.30.0
    subdir=app
    gradle=yes

Build:2.30.1,95
    commit=v2.30.1
    subdir=app
    gradle=yes

Build:2.30.2,96
    commit=v2.30.2
    subdir=app
    gradle=yes

Build:2.31.0,97
    disable=translation error: com.android.dx.cf.code.SimException: local variable type mismatch
    commit=v2.31.0
    subdir=app
    gradle=yes

Build:2.31.2,99
    commit=v2.31.2
    subdir=app
    gradle=yes
    prebuild=sed -i -e '/jcenter()/a\        google()' ../build.gradle

Build:2.31.3,100
    commit=v2.31.3
    subdir=app
    gradle=yes
    prebuild=sed -i -e '/jcenter()/a\        google()' ../build.gradle

Build:2.31.4,101
    commit=v2.31.4
    subdir=app
    gradle=yes
    prebuild=sed -i -e '/jcenter()/a\        google()' ../build.gradle

Build:2.32.0,102
    commit=v2.32.0
    subdir=app
    gradle=yes
    prebuild=sed -i -e '/jcenter()/a\        google()' ../build.gradle

Build:2.32.1,103
    commit=v2.32.1
    subdir=app
    gradle=yes
    prebuild=sed -i -e '/jcenter()/a\        google()' ../build.gradle

Build:2.32.3,105
    commit=v2.32.3
    subdir=app
    gradle=yes
    prebuild=sed -i -e '/jcenter()/a\        google()' ../build.gradle

Build:2.32.4,106
    commit=v2.32.4
    subdir=app
    gradle=yes
    prebuild=sed -i -e '/jcenter()/a\        google()' ../build.gradle

Build:2.32.5,107
    commit=v2.32.5
    subdir=app
    gradle=yes
    prebuild=sed -i -e '/jcenter()/a\        google()' ../build.gradle

Build:2.33.1,110
    commit=v2.33.1
    subdir=app
    gradle=yes
    prebuild=sed -i -e '/jcenter()/a\        google()' ../build.gradle

Auto Update Mode:Version v%v
Update Check Mode:Tags ^v[0-9\.]+$
Current Version:2.33.1
Current Version Code:110
